simul.vcd
$date
  Thu Dec  5 20:57:56 2024
$end
$version
  GHDL v0
$end
$timescale
  1 fs
$end
$scope module standard $end
$upscope $end
$scope module std_logic_1164 $end
$upscope $end
$scope module numeric_std $end
$upscope $end
$scope module textio $end
$upscope $end
$scope module numeric_bit $end
$upscope $end
$scope module utils $end
$upscope $end
$scope module memorias_tb $end
$var reg 8 ! a5[7:0] $end
$var reg 32 " d4d[31:0] $end
$var reg 64 # d4ci[63:0] $end
$var reg 64 $ d4co[63:0] $end
$var reg 1 % stopc $end
$var reg 1 & clk $end
$var reg 1 ' wr $end
$scope module dutd $end
$var reg 8 ( addr[7:0] $end
$var reg 32 ) data[31:0] $end
$upscope $end
$scope module dutc $end
$var reg 1 * ck $end
$var reg 1 + wr $end
$var reg 8 , addr[7:0] $end
$var reg 64 - data_i[63:0] $end
$var reg 64 . data_o[63:0] $end
$comment mem is not handled $end
$upscope $end
$upscope $end
$enddefinitions $end
#0
b00000000 !
b11111000010000000000001111100001 "
b0000000000000000000000000000000000000000000000000000000000000000 #
b1000000000000000000000000000000000000000000000000000000000000000 $
1%
0&
1'
b00000000 (
b11111000010000000000001111100001 )
0*
1+
b00000000 ,
b0000000000000000000000000000000000000000000000000000000000000000 -
b1000000000000000000000000000000000000000000000000000000000000000 .
#5000000
b00000001 !
b11111000010000001000001111100010 "
b0000000000000000000000000000000000000000000000000000000000000001 #
b0000000000000000000000000000000000000000000000000000000000001001 $
1&
b00000001 (
b11111000010000001000001111100010 )
1*
b00000001 ,
b0000000000000000000000000000000000000000000000000000000000000001 -
b0000000000000000000000000000000000000000000000000000000000001001 .
#10000000
0&
0*
#15000000
b00000010 !
b11111000010000010000001111100011 "
b0000000000000000000000000000000000000000000000000000000000000010 #
b0000000000000000000000000000000000000000000000000000000000001111 $
1&
b00000010 (
b11111000010000010000001111100011 )
1*
b00000010 ,
b0000000000000000000000000000000000000000000000000000000000000010 -
b0000000000000000000000000000000000000000000000000000000000001111 .
#20000000
0&
0*
#25000000
b00000011 !
b11001011000000110000000001000100 "
b0000000000000000000000000000000000000000000000000000000000000011 #
b0000000000000000000000000000000000000000000000000000000000000000 $
1&
b00000011 (
b11001011000000110000000001000100 )
1*
b00000011 ,
b0000000000000000000000000000000000000000000000000000000000000011 -
b0000000000000000000000000000000000000000000000000000000000000000 .
#30000000
0&
0*
#35000000
b00000100 !
b10110100000000000000000011100100 "
b0000000000000000000000000000000000000000000000000000000000000100 #
1&
b00000100 (
b10110100000000000000000011100100 )
1*
b00000100 ,
b0000000000000000000000000000000000000000000000000000000000000100 -
#40000000
0&
0*
#45000000
b00000101 !
b10001010000000010000000010000101 "
b0000000000000000000000000000000000000000000000000000000000000101 #
1&
b00000101 (
b10001010000000010000000010000101 )
1*
b00000101 ,
b0000000000000000000000000000000000000000000000000000000000000101 -
#50000000
0&
0*
#55000000
b00000110 !
b10110100000000000000000001100101 "
b0000000000000000000000000000000000000000000000000000000000000110 #
1&
b00000110 (
b10110100000000000000000001100101 )
1*
b00000110 ,
b0000000000000000000000000000000000000000000000000000000000000110 -
#60000000
0&
0*
#65000000
b00000111 !
b11001011000000100000000001100011 "
b0000000000000000000000000000000000000000000000000000000000000111 #
1&
b00000111 (
b11001011000000100000000001100011 )
1*
b00000111 ,
b0000000000000000000000000000000000000000000000000000000000000111 -
#70000000
0&
0*
#75000000
b00001000 !
b00010111111111111111111111111011 "
b0000000000000000000000000000000000000000000000000000000000001000 #
1&
b00001000 (
b00010111111111111111111111111011 )
1*
b00001000 ,
b0000000000000000000000000000000000000000000000000000000000001000 -
#80000000
0&
0*
#85000000
b00001001 !
b11001011000000110000000001000010 "
b0000000000000000000000000000000000000000000000000000000000001001 #
1&
b00001001 (
b11001011000000110000000001000010 )
1*
b00001001 ,
b0000000000000000000000000000000000000000000000000000000000001001 -
#90000000
0&
0*
#95000000
b00001010 !
b00010111111111111111111111111001 "
b0000000000000000000000000000000000000000000000000000000000001010 #
1&
b00001010 (
b00010111111111111111111111111001 )
1*
b00001010 ,
b0000000000000000000000000000000000000000000000000000000000001010 -
#100000000
0&
0*
#105000000
b00001011 !
b11111000000000001000001111100010 "
b0000000000000000000000000000000000000000000000000000000000001011 #
1&
b00001011 (
b11111000000000001000001111100010 )
1*
b00001011 ,
b0000000000000000000000000000000000000000000000000000000000001011 -
#110000000
0&
0*
#115000000
b00001100 !
b00010100000000000000000000000000 "
b0000000000000000000000000000000000000000000000000000000000001100 #
1&
b00001100 (
b00010100000000000000000000000000 )
1*
b00001100 ,
b0000000000000000000000000000000000000000000000000000000000001100 -
#120000000
0&
0*
#125000000
b00001101 !
b00000000000000000000000000000000 "
b0000000000000000000000000000000000000000000000000000000000001101 #
1&
b00001101 (
b00000000000000000000000000000000 )
1*
b00001101 ,
b0000000000000000000000000000000000000000000000000000000000001101 -
#130000000
0&
0*
#135000000
b00001110 !
b0000000000000000000000000000000000000000000000000000000000001110 #
1&
b00001110 (
1*
b00001110 ,
b0000000000000000000000000000000000000000000000000000000000001110 -
#140000000
0&
0*
#145000000
b00001111 !
b0000000000000000000000000000000000000000000000000000000000001111 #
1&
b00001111 (
1*
b00001111 ,
b0000000000000000000000000000000000000000000000000000000000001111 -
#150000000
0&
0*
#155000000
b00010000 !
b0000000000000000000000000000000000000000000000000000000000010000 #
1&
b00010000 (
1*
b00010000 ,
b0000000000000000000000000000000000000000000000000000000000010000 -
#160000000
0&
0*
#165000000
b00010001 !
b0000000000000000000000000000000000000000000000000000000000010001 #
1&
b00010001 (
1*
b00010001 ,
b0000000000000000000000000000000000000000000000000000000000010001 -
#170000000
0&
0*
#175000000
b00010010 !
b0000000000000000000000000000000000000000000000000000000000010010 #
1&
b00010010 (
1*
b00010010 ,
b0000000000000000000000000000000000000000000000000000000000010010 -
#180000000
0&
0*
#185000000
b00010011 !
b0000000000000000000000000000000000000000000000000000000000010011 #
1&
b00010011 (
1*
b00010011 ,
b0000000000000000000000000000000000000000000000000000000000010011 -
#190000000
0&
0*
#195000000
b00010100 !
b0000000000000000000000000000000000000000000000000000000000010100 #
1&
b00010100 (
1*
b00010100 ,
b0000000000000000000000000000000000000000000000000000000000010100 -
#200000000
0&
0*
#205000000
b00010101 !
b0000000000000000000000000000000000000000000000000000000000010101 #
1&
b00010101 (
1*
b00010101 ,
b0000000000000000000000000000000000000000000000000000000000010101 -
#210000000
0&
0*
#215000000
b00010110 !
b0000000000000000000000000000000000000000000000000000000000010110 #
1&
b00010110 (
1*
b00010110 ,
b0000000000000000000000000000000000000000000000000000000000010110 -
#220000000
0&
0*
#225000000
b00010111 !
b0000000000000000000000000000000000000000000000000000000000010111 #
1&
b00010111 (
1*
b00010111 ,
b0000000000000000000000000000000000000000000000000000000000010111 -
#230000000
0&
0*
#235000000
b00011000 !
b0000000000000000000000000000000000000000000000000000000000011000 #
1&
b00011000 (
1*
b00011000 ,
b0000000000000000000000000000000000000000000000000000000000011000 -
#240000000
0&
0*
#245000000
b00011001 !
b0000000000000000000000000000000000000000000000000000000000011001 #
1&
b00011001 (
1*
b00011001 ,
b0000000000000000000000000000000000000000000000000000000000011001 -
#250000000
0&
0*
#255000000
b00011010 !
b0000000000000000000000000000000000000000000000000000000000011010 #
1&
b00011010 (
1*
b00011010 ,
b0000000000000000000000000000000000000000000000000000000000011010 -
#260000000
0&
0*
#265000000
b00011011 !
b0000000000000000000000000000000000000000000000000000000000011011 #
1&
b00011011 (
1*
b00011011 ,
b0000000000000000000000000000000000000000000000000000000000011011 -
#270000000
0&
0*
#275000000
b00011100 !
b0000000000000000000000000000000000000000000000000000000000011100 #
1&
b00011100 (
1*
b00011100 ,
b0000000000000000000000000000000000000000000000000000000000011100 -
#280000000
0&
0*
#285000000
b00011101 !
b0000000000000000000000000000000000000000000000000000000000011101 #
1&
b00011101 (
1*
b00011101 ,
b0000000000000000000000000000000000000000000000000000000000011101 -
#290000000
0&
0*
#295000000
b00011110 !
b0000000000000000000000000000000000000000000000000000000000011110 #
1&
b00011110 (
1*
b00011110 ,
b0000000000000000000000000000000000000000000000000000000000011110 -
#300000000
0&
0*
#305000000
b00011111 !
b0000000000000000000000000000000000000000000000000000000000011111 #
1&
b00011111 (
1*
b00011111 ,
b0000000000000000000000000000000000000000000000000000000000011111 -
#310000000
0&
0*
#315000000
b00000000 !
b11111000010000000000001111100001 "
1&
0'
b00000000 (
b11111000010000000000001111100001 )
1*
0+
b00000000 ,
#316000000
b00000001 !
b11111000010000001000001111100010 "
b0000000000000000000000000000000000000000000000000000000000000001 $
b00000001 (
b11111000010000001000001111100010 )
b00000001 ,
b0000000000000000000000000000000000000000000000000000000000000001 .
#317000000
b00000010 !
b11111000010000010000001111100011 "
b0000000000000000000000000000000000000000000000000000000000000010 $
b00000010 (
b11111000010000010000001111100011 )
b00000010 ,
b0000000000000000000000000000000000000000000000000000000000000010 .
#318000000
b00000011 !
b11001011000000110000000001000100 "
b0000000000000000000000000000000000000000000000000000000000000011 $
b00000011 (
b11001011000000110000000001000100 )
b00000011 ,
b0000000000000000000000000000000000000000000000000000000000000011 .
#319000000
b00000100 !
b10110100000000000000000011100100 "
b0000000000000000000000000000000000000000000000000000000000000100 $
b00000100 (
b10110100000000000000000011100100 )
b00000100 ,
b0000000000000000000000000000000000000000000000000000000000000100 .
#320000000
b00000101 !
b10001010000000010000000010000101 "
b0000000000000000000000000000000000000000000000000000000000000101 $
0&
b00000101 (
b10001010000000010000000010000101 )
0*
b00000101 ,
b0000000000000000000000000000000000000000000000000000000000000101 .
#321000000
b00000110 !
b10110100000000000000000001100101 "
b0000000000000000000000000000000000000000000000000000000000000110 $
b00000110 (
b10110100000000000000000001100101 )
b00000110 ,
b0000000000000000000000000000000000000000000000000000000000000110 .
#322000000
b00000111 !
b11001011000000100000000001100011 "
b0000000000000000000000000000000000000000000000000000000000000111 $
b00000111 (
b11001011000000100000000001100011 )
b00000111 ,
b0000000000000000000000000000000000000000000000000000000000000111 .
#323000000
b00001000 !
b00010111111111111111111111111011 "
b0000000000000000000000000000000000000000000000000000000000001000 $
b00001000 (
b00010111111111111111111111111011 )
b00001000 ,
b0000000000000000000000000000000000000000000000000000000000001000 .
#324000000
b00001001 !
b11001011000000110000000001000010 "
b0000000000000000000000000000000000000000000000000000000000001001 $
b00001001 (
b11001011000000110000000001000010 )
b00001001 ,
b0000000000000000000000000000000000000000000000000000000000001001 .
#325000000
b00001010 !
b00010111111111111111111111111001 "
b0000000000000000000000000000000000000000000000000000000000001010 $
1&
b00001010 (
b00010111111111111111111111111001 )
1*
b00001010 ,
b0000000000000000000000000000000000000000000000000000000000001010 .
#326000000
b00001011 !
b11111000000000001000001111100010 "
b0000000000000000000000000000000000000000000000000000000000001011 $
b00001011 (
b11111000000000001000001111100010 )
b00001011 ,
b0000000000000000000000000000000000000000000000000000000000001011 .
#327000000
b00001100 !
b00010100000000000000000000000000 "
b0000000000000000000000000000000000000000000000000000000000001100 $
b00001100 (
b00010100000000000000000000000000 )
b00001100 ,
b0000000000000000000000000000000000000000000000000000000000001100 .
#328000000
b00001101 !
b00000000000000000000000000000000 "
b0000000000000000000000000000000000000000000000000000000000001101 $
b00001101 (
b00000000000000000000000000000000 )
b00001101 ,
b0000000000000000000000000000000000000000000000000000000000001101 .
#329000000
b00001110 !
b0000000000000000000000000000000000000000000000000000000000001110 $
b00001110 (
b00001110 ,
b0000000000000000000000000000000000000000000000000000000000001110 .
#330000000
b00001111 !
b0000000000000000000000000000000000000000000000000000000000001111 $
0&
b00001111 (
0*
b00001111 ,
b0000000000000000000000000000000000000000000000000000000000001111 .
#331000000
b00010000 !
b0000000000000000000000000000000000000000000000000000000000010000 $
b00010000 (
b00010000 ,
b0000000000000000000000000000000000000000000000000000000000010000 .
#332000000
b00010001 !
b0000000000000000000000000000000000000000000000000000000000010001 $
b00010001 (
b00010001 ,
b0000000000000000000000000000000000000000000000000000000000010001 .
#333000000
b00010010 !
b0000000000000000000000000000000000000000000000000000000000010010 $
b00010010 (
b00010010 ,
b0000000000000000000000000000000000000000000000000000000000010010 .
#334000000
b00010011 !
b0000000000000000000000000000000000000000000000000000000000010011 $
b00010011 (
b00010011 ,
b0000000000000000000000000000000000000000000000000000000000010011 .
#335000000
b00010100 !
b0000000000000000000000000000000000000000000000000000000000010100 $
1&
b00010100 (
1*
b00010100 ,
b0000000000000000000000000000000000000000000000000000000000010100 .
#336000000
b00010101 !
b0000000000000000000000000000000000000000000000000000000000010101 $
b00010101 (
b00010101 ,
b0000000000000000000000000000000000000000000000000000000000010101 .
#337000000
b00010110 !
b0000000000000000000000000000000000000000000000000000000000010110 $
b00010110 (
b00010110 ,
b0000000000000000000000000000000000000000000000000000000000010110 .
#338000000
b00010111 !
b0000000000000000000000000000000000000000000000000000000000010111 $
b00010111 (
b00010111 ,
b0000000000000000000000000000000000000000000000000000000000010111 .
#339000000
b00011000 !
b0000000000000000000000000000000000000000000000000000000000011000 $
b00011000 (
b00011000 ,
b0000000000000000000000000000000000000000000000000000000000011000 .
#340000000
b00011001 !
b0000000000000000000000000000000000000000000000000000000000011001 $
0&
b00011001 (
0*
b00011001 ,
b0000000000000000000000000000000000000000000000000000000000011001 .
#341000000
b00011010 !
b0000000000000000000000000000000000000000000000000000000000011010 $
b00011010 (
b00011010 ,
b0000000000000000000000000000000000000000000000000000000000011010 .
#342000000
b00011011 !
b0000000000000000000000000000000000000000000000000000000000011011 $
b00011011 (
b00011011 ,
b0000000000000000000000000000000000000000000000000000000000011011 .
#343000000
b00011100 !
b0000000000000000000000000000000000000000000000000000000000011100 $
b00011100 (
b00011100 ,
b0000000000000000000000000000000000000000000000000000000000011100 .
#344000000
b00011101 !
b0000000000000000000000000000000000000000000000000000000000011101 $
b00011101 (
b00011101 ,
b0000000000000000000000000000000000000000000000000000000000011101 .
#345000000
b00011110 !
b0000000000000000000000000000000000000000000000000000000000011110 $
1&
b00011110 (
1*
b00011110 ,
b0000000000000000000000000000000000000000000000000000000000011110 .
#346000000
b00011111 !
b0000000000000000000000000000000000000000000000000000000000011111 $
b00011111 (
b00011111 ,
b0000000000000000000000000000000000000000000000000000000000011111 .
#347000000
0%
