Projeto completo/simul.vcd
$date
  Fri Dec  6 23:33:55 2024
$end
$version
  GHDL v0
$end
$timescale
  1 fs
$end
$scope module standard $end
$upscope $end
$scope module std_logic_1164 $end
$upscope $end
$scope module numeric_std $end
$upscope $end
$scope module textio $end
$upscope $end
$scope module numeric_bit $end
$upscope $end
$scope module utils $end
$upscope $end
$scope module memorias_tb $end
$var reg 8 ! a5[7:0] $end
$var reg 32 " d4d[31:0] $end
$var reg 64 # d4ci[63:0] $end
$var reg 64 $ d4co[63:0] $end
$var reg 1 % stopc $end
$var reg 1 & clk $end
$var reg 1 ' wr $end
$scope module dutd $end
$var reg 8 ( addr[7:0] $end
$var reg 32 ) data[31:0] $end
$upscope $end
$scope module dutc $end
$var reg 1 * ck $end
$var reg 1 + wr $end
$var reg 8 , addr[7:0] $end
$var reg 64 - data_i[63:0] $end
$var reg 64 . data_o[63:0] $end
$comment mem is not handled $end
$upscope $end
$upscope $end
$enddefinitions $end
#0
b00000000 !
b11111000010000000000001111100001 "
b0000000000000000000000000000000000000000000000000000000000000000 #
b1000000000000000000000000000000000000000000000000000000000000000 $
1%
0&
1'
b00000000 (
b11111000010000000000001111100001 )
0*
1+
b00000000 ,
b0000000000000000000000000000000000000000000000000000000000000000 -
b1000000000000000000000000000000000000000000000000000000000000000 .
#5000000
b00000001 !
b11111000010000001000001111100010 "
b0000000000000000000000000000000000000000000000000000000000000001 #
b0000000000000000000000000000000000000000000000000000000000001001 $
1&
b00000001 (
b11111000010000001000001111100010 )
1*
b00000001 ,
b0000000000000000000000000000000000000000000000000000000000000001 -
b0000000000000000000000000000000000000000000000000000000000001001 .
#10000000
0&
0*
#15000000
b00000010 !
b11111000010000010000001111100011 "
b0000000000000000000000000000000000000000000000000000000000000010 #
b0000000000000000000000000000000000000000000000000000000000001111 $
1&
b00000010 (
b11111000010000010000001111100011 )
1*
b00000010 ,
b0000000000000000000000000000000000000000000000000000000000000010 -
b0000000000000000000000000000000000000000000000000000000000001111 .
#20000000
0&
0*
#25000000
b00000011 !
b11001011000000110000000001000100 "
b0000000000000000000000000000000000000000000000000000000000000011 #
b0000000000000000000000000000000000000000000000000000000000000000 $
1&
b00000011 (
b11001011000000110000000001000100 )
1*
b00000011 ,
b0000000000000000000000000000000000000000000000000000000000000011 -
b0000000000000000000000000000000000000000000000000000000000000000 .
#30000000
0&
0*
#35000000
b00000100 !
b10110100000000000000000011100100 "
b0000000000000000000000000000000000000000000000000000000000000100 #
1&
b00000100 (
b10110100000000000000000011100100 )
1*
b00000100 ,
b0000000000000000000000000000000000000000000000000000000000000100 -
#40000000
0&
0*
#45000000
b00000101 !
b10001010000000010000000010000101 "
b0000000000000000000000000000000000000000000000000000000000000101 #
1&
b00000101 (
b10001010000000010000000010000101 )
1*
b00000101 ,
b0000000000000000000000000000000000000000000000000000000000000101 -
#50000000
0&
0*
#55000000
b00000110 !
b10110100000000000000000001100101 "
b0000000000000000000000000000000000000000000000000000000000000110 #
1&
b00000110 (
b10110100000000000000000001100101 )
1*
b00000110 ,
b0000000000000000000000000000000000000000000000000000000000000110 -
#60000000
0&
0*
#65000000
b00000111 !
b11001011000000100000000001100011 "
b0000000000000000000000000000000000000000000000000000000000000111 #
1&
b00000111 (
b11001011000000100000000001100011 )
1*
b00000111 ,
b0000000000000000000000000000000000000000000000000000000000000111 -
#70000000
0&
0*
#75000000
b00001000 !
b00010111111111111111111111111011 "
b0000000000000000000000000000000000000000000000000000000000001000 #
1&
b00001000 (
b00010111111111111111111111111011 )
1*
b00001000 ,
b0000000000000000000000000000000000000000000000000000000000001000 -
#80000000
0&
0*
#85000000
b00001001 !
b11001011000000110000000001000010 "
b0000000000000000000000000000000000000000000000000000000000001001 #
1&
b00001001 (
b11001011000000110000000001000010 )
1*
b00001001 ,
b0000000000000000000000000000000000000000000000000000000000001001 -
#90000000
0&
0*
#95000000
b00001010 !
b00010111111111111111111111111001 "
b0000000000000000000000000000000000000000000000000000000000001010 #
1&
b00001010 (
b00010111111111111111111111111001 )
1*
b00001010 ,
b0000000000000000000000000000000000000000000000000000000000001010 -
#100000000
0&
0*
#105000000
b00001011 !
b11111000000000001000001111100010 "
b0000000000000000000000000000000000000000000000000000000000001011 #
1&
b00001011 (
b11111000000000001000001111100010 )
1*
b00001011 ,
b0000000000000000000000000000000000000000000000000000000000001011 -
#110000000
0&
0*
#115000000
b00001100 !
b00010100000000000000000000000000 "
b0000000000000000000000000000000000000000000000000000000000001100 #
1&
b00001100 (
b00010100000000000000000000000000 )
1*
b00001100 ,
b0000000000000000000000000000000000000000000000000000000000001100 -
#120000000
0&
0*
#125000000
b00001101 !
b00000000000000000000000000000000 "
b0000000000000000000000000000000000000000000000000000000000001101 #
1&
b00001101 (
b00000000000000000000000000000000 )
1*
b00001101 ,
b0000000000000000000000000000000000000000000000000000000000001101 -
#130000000
0&
0*
#135000000
b00001110 !
b0000000000000000000000000000000000000000000000000000000000001110 #
1&
b00001110 (
1*
b00001110 ,
b0000000000000000000000000000000000000000000000000000000000001110 -
#140000000
0&
0*
#145000000
b00001111 !
b0000000000000000000000000000000000000000000000000000000000001111 #
1&
b00001111 (
1*
b00001111 ,
b0000000000000000000000000000000000000000000000000000000000001111 -
#150000000
0&
0*
#155000000
b00010000 !
b0000000000000000000000000000000000000000000000000000000000010000 #
1&
b00010000 (
1*
b00010000 ,
b0000000000000000000000000000000000000000000000000000000000010000 -
#160000000
0&
0*
#165000000
b00010001 !
b0000000000000000000000000000000000000000000000000000000000010001 #
1&
b00010001 (
1*
b00010001 ,
b0000000000000000000000000000000000000000000000000000000000010001 -
#170000000
0&
0*
#175000000
b00010010 !
b0000000000000000000000000000000000000000000000000000000000010010 #
1&
b00010010 (
1*
b00010010 ,
b0000000000000000000000000000000000000000000000000000000000010010 -
#180000000
0&
0*
#185000000
b00010011 !
b0000000000000000000000000000000000000000000000000000000000010011 #
1&
b00010011 (
1*
b00010011 ,
b0000000000000000000000000000000000000000000000000000000000010011 -
#190000000
0&
0*
#195000000
b00010100 !
b0000000000000000000000000000000000000000000000000000000000010100 #
1&
b00010100 (
1*
b00010100 ,
b0000000000000000000000000000000000000000000000000000000000010100 -
#200000000
0&
0*
#205000000
b00010101 !
b0000000000000000000000000000000000000000000000000000000000010101 #
1&
b00010101 (
1*
b00010101 ,
b0000000000000000000000000000000000000000000000000000000000010101 -
#210000000
0&
0*
#215000000
b00010110 !
b0000000000000000000000000000000000000000000000000000000000010110 #
1&
b00010110 (
1*
b00010110 ,
b0000000000000000000000000000000000000000000000000000000000010110 -
#220000000
0&
0*
#225000000
b00010111 !
b0000000000000000000000000000000000000000000000000000000000010111 #
1&
b00010111 (
1*
b00010111 ,
b0000000000000000000000000000000000000000000000000000000000010111 -
#230000000
0&
0*
#235000000
b00011000 !
b0000000000000000000000000000000000000000000000000000000000011000 #
1&
b00011000 (
1*
b00011000 ,
b0000000000000000000000000000000000000000000000000000000000011000 -
#240000000
0&
0*
#245000000
b00011001 !
b0000000000000000000000000000000000000000000000000000000000011001 #
1&
b00011001 (
1*
b00011001 ,
b0000000000000000000000000000000000000000000000000000000000011001 -
#250000000
0&
0*
#255000000
b00011010 !
b0000000000000000000000000000000000000000000000000000000000011010 #
1&
b00011010 (
1*
b00011010 ,
b0000000000000000000000000000000000000000000000000000000000011010 -
#260000000
0&
0*
#265000000
b00011011 !
b0000000000000000000000000000000000000000000000000000000000011011 #
1&
b00011011 (
1*
b00011011 ,
b0000000000000000000000000000000000000000000000000000000000011011 -
#270000000
0&
0*
#275000000
b00011100 !
b0000000000000000000000000000000000000000000000000000000000011100 #
1&
b00011100 (
1*
b00011100 ,
b0000000000000000000000000000000000000000000000000000000000011100 -
#280000000
0&
0*
#285000000
b00011101 !
b0000000000000000000000000000000000000000000000000000000000011101 #
1&
b00011101 (
1*
b00011101 ,
b0000000000000000000000000000000000000000000000000000000000011101 -
#290000000
0&
0*
#295000000
b00011110 !
b0000000000000000000000000000000000000000000000000000000000011110 #
1&
b00011110 (
1*
b00011110 ,
b0000000000000000000000000000000000000000000000000000000000011110 -
#300000000
0&
0*
#305000000
b00011111 !
b0000000000000000000000000000000000000000000000000000000000011111 #
1&
b00011111 (
1*
b00011111 ,
b0000000000000000000000000000000000000000000000000000000000011111 -
#310000000
0&
0*
#315000000
b00000000 !
b11111000010000000000001111100001 "
1&
0'
b00000000 (
b11111000010000000000001111100001 )
1*
0+
b00000000 ,
#320000000
0&
0*
#325000000
1&
1*
#326000000
b00000001 !
b11111000010000001000001111100010 "
b0000000000000000000000000000000000000000000000000000000000000001 $
b00000001 (
b11111000010000001000001111100010 )
b00000001 ,
b0000000000000000000000000000000000000000000000000000000000000001 .
#330000000
0&
0*
#335000000
1&
1*
#336000000
b00000010 !
b11111000010000010000001111100011 "
b0000000000000000000000000000000000000000000000000000000000000010 $
b00000010 (
b11111000010000010000001111100011 )
b00000010 ,
b0000000000000000000000000000000000000000000000000000000000000010 .
#340000000
0&
0*
#345000000
1&
1*
#346000000
b00000011 !
b11001011000000110000000001000100 "
b0000000000000000000000000000000000000000000000000000000000000011 $
b00000011 (
b11001011000000110000000001000100 )
b00000011 ,
b0000000000000000000000000000000000000000000000000000000000000011 .
#350000000
0&
0*
#355000000
1&
1*
#356000000
b00000100 !
b10110100000000000000000011100100 "
b0000000000000000000000000000000000000000000000000000000000000100 $
b00000100 (
b10110100000000000000000011100100 )
b00000100 ,
b0000000000000000000000000000000000000000000000000000000000000100 .
#360000000
0&
0*
#365000000
1&
1*
#366000000
b00000101 !
b10001010000000010000000010000101 "
b0000000000000000000000000000000000000000000000000000000000000101 $
b00000101 (
b10001010000000010000000010000101 )
b00000101 ,
b0000000000000000000000000000000000000000000000000000000000000101 .
#370000000
0&
0*
#375000000
1&
1*
#376000000
b00000110 !
b10110100000000000000000001100101 "
b0000000000000000000000000000000000000000000000000000000000000110 $
b00000110 (
b10110100000000000000000001100101 )
b00000110 ,
b0000000000000000000000000000000000000000000000000000000000000110 .
#380000000
0&
0*
#385000000
1&
1*
#386000000
b00000111 !
b11001011000000100000000001100011 "
b0000000000000000000000000000000000000000000000000000000000000111 $
b00000111 (
b11001011000000100000000001100011 )
b00000111 ,
b0000000000000000000000000000000000000000000000000000000000000111 .
#390000000
0&
0*
#395000000
1&
1*
#396000000
b00001000 !
b00010111111111111111111111111011 "
b0000000000000000000000000000000000000000000000000000000000001000 $
b00001000 (
b00010111111111111111111111111011 )
b00001000 ,
b0000000000000000000000000000000000000000000000000000000000001000 .
#400000000
0&
0*
#405000000
1&
1*
#406000000
b00001001 !
b11001011000000110000000001000010 "
b0000000000000000000000000000000000000000000000000000000000001001 $
b00001001 (
b11001011000000110000000001000010 )
b00001001 ,
b0000000000000000000000000000000000000000000000000000000000001001 .
#410000000
0&
0*
#415000000
1&
1*
#416000000
b00001010 !
b00010111111111111111111111111001 "
b0000000000000000000000000000000000000000000000000000000000001010 $
b00001010 (
b00010111111111111111111111111001 )
b00001010 ,
b0000000000000000000000000000000000000000000000000000000000001010 .
#420000000
0&
0*
#425000000
1&
1*
#426000000
b00001011 !
b11111000000000001000001111100010 "
b0000000000000000000000000000000000000000000000000000000000001011 $
b00001011 (
b11111000000000001000001111100010 )
b00001011 ,
b0000000000000000000000000000000000000000000000000000000000001011 .
#430000000
0&
0*
#435000000
1&
1*
#436000000
b00001100 !
b00010100000000000000000000000000 "
b0000000000000000000000000000000000000000000000000000000000001100 $
b00001100 (
b00010100000000000000000000000000 )
b00001100 ,
b0000000000000000000000000000000000000000000000000000000000001100 .
#440000000
0&
0*
#445000000
1&
1*
#446000000
b00001101 !
b00000000000000000000000000000000 "
b0000000000000000000000000000000000000000000000000000000000001101 $
b00001101 (
b00000000000000000000000000000000 )
b00001101 ,
b0000000000000000000000000000000000000000000000000000000000001101 .
#450000000
0&
0*
#455000000
1&
1*
#456000000
b00001110 !
b0000000000000000000000000000000000000000000000000000000000001110 $
b00001110 (
b00001110 ,
b0000000000000000000000000000000000000000000000000000000000001110 .
#460000000
0&
0*
#465000000
1&
1*
#466000000
b00001111 !
b0000000000000000000000000000000000000000000000000000000000001111 $
b00001111 (
b00001111 ,
b0000000000000000000000000000000000000000000000000000000000001111 .
#470000000
0&
0*
#475000000
1&
1*
#476000000
b00010000 !
b0000000000000000000000000000000000000000000000000000000000010000 $
b00010000 (
b00010000 ,
b0000000000000000000000000000000000000000000000000000000000010000 .
#480000000
0&
0*
#485000000
1&
1*
#486000000
b00010001 !
b0000000000000000000000000000000000000000000000000000000000010001 $
b00010001 (
b00010001 ,
b0000000000000000000000000000000000000000000000000000000000010001 .
#490000000
0&
0*
#495000000
1&
1*
#496000000
b00010010 !
b0000000000000000000000000000000000000000000000000000000000010010 $
b00010010 (
b00010010 ,
b0000000000000000000000000000000000000000000000000000000000010010 .
#500000000
0&
0*
#505000000
1&
1*
#506000000
b00010011 !
b0000000000000000000000000000000000000000000000000000000000010011 $
b00010011 (
b00010011 ,
b0000000000000000000000000000000000000000000000000000000000010011 .
#510000000
0&
0*
#515000000
1&
1*
#516000000
b00010100 !
b0000000000000000000000000000000000000000000000000000000000010100 $
b00010100 (
b00010100 ,
b0000000000000000000000000000000000000000000000000000000000010100 .
#520000000
0&
0*
#525000000
1&
1*
#526000000
b00010101 !
b0000000000000000000000000000000000000000000000000000000000010101 $
b00010101 (
b00010101 ,
b0000000000000000000000000000000000000000000000000000000000010101 .
#530000000
0&
0*
#535000000
1&
1*
#536000000
b00010110 !
b0000000000000000000000000000000000000000000000000000000000010110 $
b00010110 (
b00010110 ,
b0000000000000000000000000000000000000000000000000000000000010110 .
#540000000
0&
0*
#545000000
1&
1*
#546000000
b00010111 !
b0000000000000000000000000000000000000000000000000000000000010111 $
b00010111 (
b00010111 ,
b0000000000000000000000000000000000000000000000000000000000010111 .
#550000000
0&
0*
#555000000
1&
1*
#556000000
b00011000 !
b0000000000000000000000000000000000000000000000000000000000011000 $
b00011000 (
b00011000 ,
b0000000000000000000000000000000000000000000000000000000000011000 .
#560000000
0&
0*
#565000000
1&
1*
#566000000
b00011001 !
b0000000000000000000000000000000000000000000000000000000000011001 $
b00011001 (
b00011001 ,
b0000000000000000000000000000000000000000000000000000000000011001 .
#570000000
0&
0*
#575000000
1&
1*
#576000000
b00011010 !
b0000000000000000000000000000000000000000000000000000000000011010 $
b00011010 (
b00011010 ,
b0000000000000000000000000000000000000000000000000000000000011010 .
#580000000
0&
0*
#585000000
1&
1*
#586000000
b00011011 !
b0000000000000000000000000000000000000000000000000000000000011011 $
b00011011 (
b00011011 ,
b0000000000000000000000000000000000000000000000000000000000011011 .
#590000000
0&
0*
#595000000
1&
1*
#596000000
b00011100 !
b0000000000000000000000000000000000000000000000000000000000011100 $
b00011100 (
b00011100 ,
b0000000000000000000000000000000000000000000000000000000000011100 .
#600000000
0&
0*
#605000000
1&
1*
#606000000
b00011101 !
b0000000000000000000000000000000000000000000000000000000000011101 $
b00011101 (
b00011101 ,
b0000000000000000000000000000000000000000000000000000000000011101 .
#610000000
0&
0*
#615000000
1&
1*
#616000000
b00011110 !
b0000000000000000000000000000000000000000000000000000000000011110 $
b00011110 (
b00011110 ,
b0000000000000000000000000000000000000000000000000000000000011110 .
#620000000
0&
0*
#625000000
1&
1*
#626000000
b00011111 !
b0000000000000000000000000000000000000000000000000000000000011111 $
b00011111 (
b00011111 ,
b0000000000000000000000000000000000000000000000000000000000011111 .
#630000000
0&
0*
#635000000
1&
1*
#636000000
0%
